…
``` r
turbines %>% count(commissioning_date, sort = TRUE)
```

    ## # A tibble: 35 x 2
    ##    commissioning_date     n
    ##    <chr>              <int>
    ##  1 2014                 873
    ##  2 2015                 635
    ##  3 2013                 621
    ##  4 2011                 590
    ##  5 2009                 485
    ##  6 2006                 455
    ##  7 2012                 404
    ##  8 2010                 334
    ##  9 2016                 266
    ## 10 2014/2015            207
    ## # ... with 25 more rows
…
## Explore results

``` r
collect_metrics(tree_rs)
```

    ## # A tibble: 256 x 9
    ##    cost_complexity tree_depth min_n .metric .estimator    mean     n std_err
    ##              <dbl>      <int> <int> <chr>   <chr>        <dbl> <int>   <dbl>
    ##  1    0.0000000001          1     2 mae     standard   386.       10  1.50  
    ##  2    0.0000000001          1     2 mape    standard    27.7      10  1.30  
    ##  3    0.0000000001          1     2 rmse    standard   508.       10  1.44  
    ##  4    0.0000000001          1     2 rsq     standard     0.303    10  0.0134
    ##  5    0.0000001             1     2 mae     standard   386.       10  1.50  
    ##  6    0.0000001             1     2 mape    standard    27.7      10  1.30  
    ##  7    0.0000001             1     2 rmse    standard   508.       10  1.44  
    ##  8    0.0000001             1     2 rsq     standard     0.303    10  0.0134
    ##  9    0.0001                1     2 mae     standard   386.       10  1.50  
    ## 10    0.0001                1     2 mape    standard    27.7      10  1.30  
    ## # ... with 246 more rows, and 1 more variable: .config <chr>
…
