…
``` r
juice(hotel_recipe) # to get the processed training data out of the recipe 
```

    ## # A tibble: 9,176 x 19
    ##       adr adults total_of_specia~ stays_in_week_n~ stays_in_weeken~ children
    ##     <dbl>  <dbl>            <dbl>            <dbl>            <dbl> <fct>   
    ##  1  0.523  0.232            0.107            0.792          -0.997  children
    ##  2  0.495  0.232           -0.974           -0.290          -0.997  children
    ##  3 -0.369  0.232            1.19             1.33            1.05   children
    ##  4 -0.414 -1.82             1.19             0.792           1.05   children
    ##  5 -0.779  0.232            1.19             1.33            1.05   children
    ##  6  0.269  0.232            1.19             1.33            1.05   children
    ##  7  0.430  0.232            0.107            1.87            3.11   children
    ##  8  0.675  0.232            0.107            1.33            1.05   children
    ##  9  0.848  0.232            0.107            1.33            3.11   children
    ## 10  0.720  0.232           -0.974            0.792           0.0286 children
    ## # ... with 9,166 more rows, and 13 more variables: hotel_Resort.Hotel <dbl>,
    ## #   arrival_date_month_August <dbl>, arrival_date_month_December <dbl>,
    ## #   arrival_date_month_February <dbl>, arrival_date_month_July <dbl>,
    ## #   arrival_date_month_June <dbl>, arrival_date_month_March <dbl>,
    ## #   arrival_date_month_May <dbl>, arrival_date_month_October <dbl>,
    ## #   arrival_date_month_September <dbl>, meal_HB <dbl>, meal_SC <dbl>,
    ## #   required_car_parking_spaces_Parking <dbl>
…
## Evaluate Our Model

``` r
set.seed(345)

val_splits <- mc_cv(juice(hotel_recipe), prop = 0.9 , strata = children)
val_splits
```

    ## # Monte Carlo cross-validation (0.9/0.1) with 25 resamples  using stratification 
    ## # A tibble: 25 x 2
    ##    splits             id        
    ##    <list>             <chr>     
    ##  1 <split [8.3K/916]> Resample01
    ##  2 <split [8.3K/916]> Resample02
    ##  3 <split [8.3K/916]> Resample03
    ##  4 <split [8.3K/916]> Resample04
    ##  5 <split [8.3K/916]> Resample05
    ##  6 <split [8.3K/916]> Resample06
    ##  7 <split [8.3K/916]> Resample07
    ##  8 <split [8.3K/916]> Resample08
    ##  9 <split [8.3K/916]> Resample09
    ## 10 <split [8.3K/916]> Resample10
    ## # ... with 15 more rows
…
